<svg xmlns="http://www.w3.org/2000/svg" width="42.194" height="42.74" viewBox="0 0 42.194 42.74">
  <path id="Tracé_3153" data-name="Tracé 3153" d="M79.2,72.441l-7.94-7.94a1.44,1.44,0,0,0-2.2,0l-3.717,3.548c-1.352,1.352-3.21.169-6.758-2.7a51.4,51.4,0,0,1-7.434-7.434c-1.689-2.027-3.041-4.224-1.521-5.744l3.717-3.717h0a1.633,1.633,0,0,0,0-2.365h0l-8.278-8.278a1.441,1.441,0,0,0-2.2,0l-3.886,4.055c-1.521,1.858-4.9,10.981,9.63,26.018C64,83.591,73.8,80.212,75.655,78.523l3.717-3.717h0a1.775,1.775,0,0,0-.169-2.365Z" transform="translate(-37.539 -37.3)" fill="#a0bf38"/>
</svg>
